C:\Users\Tarda\Desktop\games\games\games\src\main\java\com\codesplai\games\Genre.java
C:\Users\Tarda\Desktop\games\games\games\src\main\java\com\codesplai\games\Platforms.java
C:\Users\Tarda\Desktop\games\games\games\src\main\java\com\codesplai\games\Popup.java
C:\Users\Tarda\Desktop\games\games\games\src\main\java\com\codesplai\games\Publishers.java
C:\Users\Tarda\Desktop\games\games\games\src\main\java\com\codesplai\games\PlatformsController.java
C:\Users\Tarda\Desktop\games\games\games\src\main\java\com\codesplai\games\PublishersController.java
C:\Users\Tarda\Desktop\games\games\games\src\main\java\com\codesplai\games\DBConn.java
C:\Users\Tarda\Desktop\games\games\games\src\main\java\com\codesplai\games\GenreController.java
